{
    "array": [
        "array",
        "list"
    ],
    "list": [
        "array",
        "list"
    ],
    "extract": [
        "extract",
        "take",
        "receive",
        "find",
        "get",
        "return",
        "collect"
    ],
    "take": [
        "extract",
        "take",
        "receive",
        "find",
        "get",
        "return",
        "collect"
    ],
    "receive": [
        "extract",
        "take",
        "receive",
        "find",
        "get",
        "return",
        "collect"
    ],
    "find": [
        "extract",
        "take",
        "receive",
        "find",
        "get",
        "return",
        "collect"
    ],
    "get": [
        "extract",
        "take",
        "receive",
        "find",
        "get",
        "return",
        "collect"
    ],
    "return": [
        "extract",
        "take",
        "receive",
        "find",
        "get",
        "return",
        "collect"
    ],
    "collect": [
        "extract",
        "take",
        "receive",
        "find",
        "get",
        "return",
        "collect"
    ],
    "units": [
        "units",
        "elements",
        "items",
        "parts",
        "components",
        "members",
        "values"
    ],
    "elements": [
        "units",
        "elements",
        "items",
        "parts",
        "components",
        "members",
        "values"
    ],
    "items": [
        "units",
        "elements",
        "items",
        "parts",
        "components",
        "members",
        "values"
    ],
    "parts": [
        "units",
        "elements",
        "items",
        "parts",
        "components",
        "members",
        "values"
    ],
    "components": [
        "units",
        "elements",
        "items",
        "parts",
        "components",
        "members",
        "values"
    ],
    "members": [
        "units",
        "elements",
        "items",
        "parts",
        "components",
        "members",
        "values"
    ],
    "values": [
        "units",
        "elements",
        "items",
        "parts",
        "components",
        "members",
        "values"
    ],
    "map": [
        "map",
        "dict",
        "dictionary",
        "hash-map"
    ],
    "dict": [
        "map",
        "dict",
        "dictionary",
        "hash-map"
    ],
    "dictionary": [
        "map",
        "dict",
        "dictionary",
        "hash-map"
    ],
    "hash-map": [
        "map",
        "dict",
        "dictionary",
        "hash-map"
    ],
    "frame": [
        "frame",
        "dataframe"
    ],
    "dataframe": [
        "frame",
        "dataframe"
    ],
    "value": [
        "value",
        "element",
        "part",
        "item",
        "unit",
        "section"
    ],
    "element": [
        "value",
        "element",
        "part",
        "item",
        "unit",
        "section"
    ],
    "part": [
        "value",
        "element",
        "part",
        "item",
        "unit",
        "section"
    ],
    "item": [
        "value",
        "element",
        "part",
        "item",
        "unit",
        "section"
    ],
    "unit": [
        "value",
        "element",
        "part",
        "item",
        "unit",
        "section"
    ],
    "section": [
        "value",
        "element",
        "part",
        "item",
        "unit",
        "section"
    ],
    "convert": [
        "convert",
        "change",
        "alter",
        "transform"
    ],
    "change": [
        "convert",
        "change",
        "alter",
        "transform"
    ],
    "alter": [
        "convert",
        "change",
        "alter",
        "transform"
    ],
    "transform": [
        "convert",
        "change",
        "alter",
        "transform"
    ],
    "filename": [
        "filename",
        "path",
        "file"
    ],
    "path": [
        "filename",
        "path",
        "file"
    ],
    "file": [
        "filename",
        "path",
        "file"
    ],
    "through": [
        "through",
        "using",
        "with",
        "via"
    ],
    "using": [
        "through",
        "using",
        "with",
        "via"
    ],
    "with": [
        "through",
        "using",
        "with",
        "via"
    ],
    "via": [
        "through",
        "using",
        "with",
        "via"
    ],
    "organise": [
        "organise",
        "sort",
        "rearrange",
        "arrange",
        "order",
        "reorder"
    ],
    "sort": [
        "organise",
        "sort",
        "rearrange",
        "arrange",
        "order",
        "reorder"
    ],
    "rearrange": [
        "organise",
        "sort",
        "rearrange",
        "arrange",
        "order",
        "reorder"
    ],
    "arrange": [
        "organise",
        "sort",
        "rearrange",
        "arrange",
        "order",
        "reorder"
    ],
    "order": [
        "organise",
        "sort",
        "rearrange",
        "arrange",
        "order",
        "reorder"
    ],
    "reorder": [
        "organise",
        "sort",
        "rearrange",
        "arrange",
        "order",
        "reorder"
    ],
    "remove": [
        "remove",
        "delete",
        "take_out",
        "get_rid_of",
        "take_away"
    ],
    "delete": [
        "remove",
        "delete",
        "take_out",
        "get_rid_of",
        "take_away"
    ],
    "take_out": [
        "remove",
        "delete",
        "take_out",
        "get_rid_of",
        "take_away"
    ],
    "get_rid_of": [
        "remove",
        "delete",
        "take_out",
        "get_rid_of",
        "take_away"
    ],
    "take_away": [
        "remove",
        "delete",
        "take_out",
        "get_rid_of",
        "take_away"
    ],
    "pandas": [
        "pandas",
        "pd"
    ],
    "pd": [
        "pandas",
        "pd"
    ],
    "create": [
        "create",
        "produce",
        "make"
    ],
    "produce": [
        "create",
        "produce",
        "make"
    ],
    "make": [
        "create",
        "produce",
        "make"
    ],
    "index": [
        "index",
        "i"
    ],
    "i": [
        "index",
        "i"
    ],
    "data": [
        "data",
        "datum",
        "information"
    ],
    "datum": [
        "data",
        "datum",
        "information"
    ],
    "information": [
        "data",
        "datum",
        "information"
    ],
    "check": [
        "check",
        "ensure",
        "examine",
        "condition",
        "control",
        "see",
        "insure",
        "confirm"
    ],
    "ensure": [
        "check",
        "ensure",
        "examine",
        "condition",
        "control",
        "see",
        "insure",
        "confirm"
    ],
    "examine": [
        "check",
        "ensure",
        "examine",
        "condition",
        "control",
        "see",
        "insure",
        "confirm"
    ],
    "condition": [
        "check",
        "ensure",
        "examine",
        "condition",
        "control",
        "see",
        "insure",
        "confirm"
    ],
    "control": [
        "check",
        "ensure",
        "examine",
        "condition",
        "control",
        "see",
        "insure",
        "confirm"
    ],
    "see": [
        "check",
        "ensure",
        "examine",
        "condition",
        "control",
        "see",
        "insure",
        "confirm"
    ],
    "insure": [
        "check",
        "ensure",
        "examine",
        "condition",
        "control",
        "see",
        "insure",
        "confirm"
    ],
    "confirm": [
        "check",
        "ensure",
        "examine",
        "condition",
        "control",
        "see",
        "insure",
        "confirm"
    ],
    "start": [
        "start",
        "starting",
        "foremost",
        "maiden",
        "initial",
        "inaugural",
        "first",
        "1st",
        "beginning"
    ],
    "starting": [
        "start",
        "starting",
        "foremost",
        "maiden",
        "initial",
        "inaugural",
        "first",
        "1st",
        "beginning"
    ],
    "foremost": [
        "start",
        "starting",
        "foremost",
        "maiden",
        "initial",
        "inaugural",
        "first",
        "1st",
        "beginning"
    ],
    "maiden": [
        "start",
        "starting",
        "foremost",
        "maiden",
        "initial",
        "inaugural",
        "first",
        "1st",
        "beginning"
    ],
    "initial": [
        "start",
        "starting",
        "foremost",
        "maiden",
        "initial",
        "inaugural",
        "first",
        "1st",
        "beginning"
    ],
    "inaugural": [
        "start",
        "starting",
        "foremost",
        "maiden",
        "initial",
        "inaugural",
        "first",
        "1st",
        "beginning"
    ],
    "first": [
        "start",
        "starting",
        "foremost",
        "maiden",
        "initial",
        "inaugural",
        "first",
        "1st",
        "beginning"
    ],
    "1st": [
        "start",
        "starting",
        "foremost",
        "maiden",
        "initial",
        "inaugural",
        "first",
        "1st",
        "beginning"
    ],
    "beginning": [
        "start",
        "starting",
        "foremost",
        "maiden",
        "initial",
        "inaugural",
        "first",
        "1st",
        "beginning"
    ],
    "type": [
        "type",
        "object",
        "item"
    ],
    "object": [
        "type",
        "object",
        "item"
    ],
    "lists": [
        "lists",
        "arrays"
    ],
    "arrays": [
        "lists",
        "arrays"
    ],
    "characters": [
        "characters",
        "letters",
        "chars"
    ],
    "letters": [
        "characters",
        "letters",
        "chars"
    ],
    "chars": [
        "characters",
        "letters",
        "chars"
    ],
    "break": [
        "break",
        "cut",
        "split"
    ],
    "cut": [
        "break",
        "cut",
        "split"
    ],
    "split": [
        "break",
        "cut",
        "split"
    ],
    "two": [
        "two",
        "2"
    ],
    "2": [
        "two",
        "2"
    ],
    "phrases": [
        "phrases",
        "strings"
    ],
    "strings": [
        "phrases",
        "strings"
    ],
    "arrangement": [
        "arrangement",
        "formatting",
        "format"
    ],
    "formatting": [
        "arrangement",
        "formatting",
        "format"
    ],
    "format": [
        "arrangement",
        "formatting",
        "format"
    ],
    "char": [
        "char",
        "letter",
        "character"
    ],
    "letter": [
        "char",
        "letter",
        "character"
    ],
    "character": [
        "char",
        "letter",
        "character"
    ],
    "holding": [
        "holding",
        "carrying",
        "containing"
    ],
    "carrying": [
        "holding",
        "carrying",
        "containing"
    ],
    "containing": [
        "holding",
        "carrying",
        "containing"
    ],
    "numpy": [
        "numpy",
        "np"
    ],
    "np": [
        "numpy",
        "np"
    ],
    "directory": [
        "directory",
        "folder"
    ],
    "folder": [
        "directory",
        "folder"
    ],
    "add": [
        "add",
        "adding",
        "addition",
        "sum"
    ],
    "adding": [
        "add",
        "adding",
        "addition",
        "sum"
    ],
    "addition": [
        "add",
        "adding",
        "addition",
        "sum"
    ],
    "sum": [
        "add",
        "adding",
        "addition",
        "sum"
    ],
    "replace": [
        "replace",
        "switch",
        "exchange",
        "interchange",
        "substitute"
    ],
    "switch": [
        "replace",
        "switch",
        "exchange",
        "interchange",
        "substitute"
    ],
    "exchange": [
        "replace",
        "switch",
        "exchange",
        "interchange",
        "substitute"
    ],
    "interchange": [
        "replace",
        "switch",
        "exchange",
        "interchange",
        "substitute"
    ],
    "substitute": [
        "replace",
        "switch",
        "exchange",
        "interchange",
        "substitute"
    ],
    "established": [
        "established",
        "based"
    ],
    "based": [
        "established",
        "based"
    ],
    "second": [
        "second",
        "2nd"
    ],
    "2nd": [
        "second",
        "2nd"
    ],
    "var": [
        "var",
        "variable"
    ],
    "variable": [
        "var",
        "variable"
    ],
    "maps": [
        "maps",
        "dictionaries",
        "hash_maps",
        "dicts"
    ],
    "dictionaries": [
        "maps",
        "dictionaries",
        "hash_maps",
        "dicts"
    ],
    "hash_maps": [
        "maps",
        "dictionaries",
        "hash_maps",
        "dicts"
    ],
    "dicts": [
        "maps",
        "dictionaries",
        "hash_maps",
        "dicts"
    ],
    "int": [
        "int",
        "whole_number",
        "integer"
    ],
    "whole_number": [
        "int",
        "whole_number",
        "integer"
    ],
    "integer": [
        "int",
        "whole_number",
        "integer"
    ],
    "whole_numbers": [
        "whole_numbers",
        "integers",
        "ints"
    ],
    "integers": [
        "whole_numbers",
        "integers",
        "ints"
    ],
    "ints": [
        "whole_numbers",
        "integers",
        "ints"
    ],
    "log": [
        "log",
        "print"
    ],
    "print": [
        "log",
        "print"
    ],
    "string": [
        "string",
        "text"
    ],
    "text": [
        "string",
        "text"
    ],
    "final": [
        "final",
        "last"
    ],
    "last": [
        "final",
        "last"
    ],
    "equivalent": [
        "equivalent",
        "equal"
    ],
    "equal": [
        "equivalent",
        "equal"
    ]
}